{
  "messagePayload": {
    "text": "Bot saying hi",
    "type": "text",
    "actions": [
      {
        "postback": {
          "variables": {},
          "data": "hi"
        },
        "label": "Say Hi back",
        "type": "postback"
      },
      {
        "postback": {
          "variables": {},
          "data": "ignore"
        },
        "label": "Ignore",
        "type": "postback"
      }
    ]
  },
  "userId": "12345"
}
