// Jest Snapshot v1, https://goo.gl/fbAQLP

exports[`WebhookSender should match snapshot 1`] = `
Array [
  <WebhookSender
    webhookConfig={
      Object {
        "externalWebhookUrl": "http://sc12ano.us.oracle.com:8888/ext/apps/chat/bots/F923E838-86D6-4088-9EBE-632B5F889DF9/messages",
        "secretKey": "h2JKVRHUvFkQTMyQWEBTptYO3n48eRzn",
      }
    }
  />,
]
`;
